{
  "implemented": true,
  "name": "Monferno",
  "nationalPokedexNumber": 391,
  "primaryType": "fire",
  "secondaryType": "fighting",
  "abilities": [
    "blaze",
    "h:ironfist"
  ],
  "baseStats": {
    "hp": 64,
    "attack": 78,
    "defence": 52,
    "special_attack": 78,
    "special_defence": 52,
    "speed": 81
  },
  "catchRate": 45,
  "maleRatio": 0.875,
  "shoulderMountable": false,
  "baseExperienceYield": 142,
  "experienceGroup": "medium_slow",
  "eggCycles": 20,
  "eggGroups": [
    "field",
    "human_like"
  ],
  "drops": {
    "amount": "1",
    "entries": [
      {
        "item": "cobblemon:charcoal_stick",
        "percentage": 10
      }
    ]
  },
  "moves": [
    "1:ember",
    "1:leer",
    "1:machpunch",
    "1:scratch",
    "9:taunt",
    "14:machpunch",
    "16:furyswipes",
    "19:flamewheel",
    "26:feint",
    "29:torment",
    "36:closecombat",
    "39:firespin",
    "46:acrobatics",
    "46:slackoff",
    "49:flareblitz",
    "49:slackoff",
    "56:flareblitz",
    "tm:acrobatics",
    "tm:aerialace",
    "tm:attract",
    "tm:brickbreak",
    "tm:bulkup",
    "tm:captivate",
    "tm:confide",
    "tm:cut",
    "tm:dig",
    "tm:doubleteam",
    "tm:endure",
    "tm:facade",
    "tm:fireblast",
    "tm:flamecharge",
    "tm:flamethrower",
    "tm:fling",
    "tm:focusblast",
    "tm:focuspunch",
    "tm:frustration",
    "tm:grassknot",
    "tm:hiddenpower",
    "tm:honeclaws",
    "tm:incinerate",
    "tm:irontail",
    "tm:lowsweep",
    "tm:naturalgift",
    "tm:overheat",
    "tm:poisonjab",
    "tm:poweruppunch",
    "tm:protect",
    "tm:rest",
    "tm:retaliate",
    "tm:return",
    "tm:rockclimb",
    "tm:rockslide",
    "tm:rocksmash",
    "tm:rocktomb",
    "tm:round",
    "tm:secretpower",
    "tm:shadowclaw",
    "tm:sleeptalk",
    "tm:stealthrock",
    "tm:strength",
    "tm:substitute",
    "tm:sunnyday",
    "tm:swagger",
    "tm:swordsdance",
    "tm:taunt",
    "tm:torment",
    "tm:toxic",
    "tm:uturn",
    "tm:willowisp",
    "tm:workup",
    "tutor:covet",
    "tutor:dualchop",
    "tutor:endeavor",
    "tutor:firepledge",
    "tutor:firepunch",
    "tutor:focuspunch",
    "tutor:gunkshot",
    "tutor:headbutt",
    "tutor:heatwave",
    "tutor:helpinghand",
    "tutor:irontail",
    "tutor:lowkick",
    "tutor:mudslap",
    "tutor:roleplay",
    "tutor:rollout",
    "tutor:sleeptalk",
    "tutor:snore",
    "tutor:stealthrock",
    "tutor:swift",
    "tutor:thunderpunch",
    "tutor:vacuumwave"
  ],
  "labels": [
    "gen4"
  ],
  "pokedex": [
    "cobblemon.species.monferno.desc"
  ],
  "preEvolution": "chimchar",
  "evolutions": [
    {
      "id": "monferno_infernape",
      "variant": "level_up",
      "result": "infernape",
      "consumeHeldItem": false,
      "learnableMoves": [],
      "requirements": [
        {
          "variant": "level",
          "minLevel": 36
        }
      ]
    }
  ],
  "baseScale": 0.7,
  "hitbox": {
    "width": 0.9,
    "height": 1.6,
    "fixed": false
  },
  "baseFriendship": 70,
  "evYield": {
    "hp": 0,
    "attack": 0,
    "defence": 0,
    "special_attack": 1,
    "special_defence": 0,
    "speed": 1
  },
  "height": 9,
  "weight": 220,
  "aspects": [],
  "cannotDynamax": false
}