{
  "implemented": true,
  "name": "Munchlax",
  "nationalPokedexNumber": 446,
  "primaryType": "normal",
  "abilities": [
    "pickup",
    "thickfat",
    "h:gluttony"
  ],
  "baseStats": {
    "hp": 135,
    "attack": 85,
    "defence": 40,
    "special_attack": 40,
    "special_defence": 85,
    "speed": 5
  },
  "catchRate": 50,
  "maleRatio": 0.875,
  "shoulderMountable": false,
  "baseExperienceYield": 78,
  "experienceGroup": "slow",
  "eggCycles": 40,
  "eggGroups": [
    "undiscovered"
  ],
  "drops": {
    "amount": "1",
    "entries": [
      {
        "item": "minecraft:apple",
        "quantityRange": "1-3",
        "percentage": 75,
        "maxSelectableTimes": 2
      }
    ]
  },
  "moves": [
    "1:lastresort",
    "1:lick",
    "1:metronome",
    "1:odorsleuth",
    "1:recycle",
    "1:snatch",
    "1:tackle",
    "4:defensecurl",
    "8:recycle",
    "9:amnesia",
    "12:covet",
    "12:lick",
    "16:bite",
    "17:chipaway",
    "17:recycle",
    "20:screech",
    "20:stockpile",
    "20:swallow",
    "24:screech",
    "25:bodyslam",
    "25:chipaway",
    "25:stockpile",
    "28:bodyslam",
    "28:stockpile",
    "28:swallow",
    "32:fling",
    "33:bodyslam",
    "33:swallow",
    "36:amnesia",
    "36:bodyslam",
    "36:fling",
    "36:rollout",
    "40:metronome",
    "41:fling",
    "41:rollout",
    "44:bellydrum",
    "44:flail",
    "44:naturalgift",
    "44:rollout",
    "48:bellydrum",
    "49:lastresort",
    "49:naturalgift",
    "50:snatch",
    "52:lastresort",
    "52:snatch",
    "57:lastresort",
    "egg:afteryou",
    "egg:belch",
    "egg:charm",
    "egg:counter",
    "egg:curse",
    "egg:doubleedge",
    "egg:fissure",
    "egg:lick",
    "egg:naturalgift",
    "egg:pursuit",
    "egg:selfdestruct",
    "egg:substitute",
    "egg:whirlwind",
    "egg:zenheadbutt",
    "tm:amnesia",
    "tm:attract",
    "tm:blizzard",
    "tm:bodyslam",
    "tm:brickbreak",
    "tm:bulldoze",
    "tm:captivate",
    "tm:charm",
    "tm:confide",
    "tm:doubleteam",
    "tm:earthquake",
    "tm:encore",
    "tm:endure",
    "tm:facade",
    "tm:fireblast",
    "tm:firepunch",
    "tm:flamethrower",
    "tm:fling",
    "tm:focuspunch",
    "tm:frustration",
    "tm:gunkshot",
    "tm:hiddenpower",
    "tm:hydropump",
    "tm:hypervoice",
    "tm:icebeam",
    "tm:icepunch",
    "tm:icywind",
    "tm:incinerate",
    "tm:megakick",
    "tm:megapunch",
    "tm:metronome",
    "tm:naturalgift",
    "tm:payday",
    "tm:poweruppunch",
    "tm:protect",
    "tm:psychic",
    "tm:raindance",
    "tm:recycle",
    "tm:rest",
    "tm:retaliate",
    "tm:return",
    "tm:rockclimb",
    "tm:rockslide",
    "tm:rocksmash",
    "tm:rocktomb",
    "tm:round",
    "tm:sandstorm",
    "tm:screech",
    "tm:secretpower",
    "tm:seedbomb",
    "tm:selfdestruct",
    "tm:shadowball",
    "tm:shockwave",
    "tm:sleeptalk",
    "tm:snore",
    "tm:solarbeam",
    "tm:stompingtantrum",
    "tm:strength",
    "tm:substitute",
    "tm:sunnyday",
    "tm:superpower",
    "tm:surf",
    "tm:swagger",
    "tm:thunder",
    "tm:thunderbolt",
    "tm:thunderpunch",
    "tm:toxic",
    "tm:uproar",
    "tm:waterpulse",
    "tm:whirlpool",
    "tm:workup",
    "tm:zenheadbutt",
    "tutor:afteryou",
    "tutor:covet",
    "tutor:curse",
    "tutor:defensecurl",
    "tutor:firepunch",
    "tutor:focuspunch",
    "tutor:gunkshot",
    "tutor:happyhour",
    "tutor:headbutt",
    "tutor:holdback",
    "tutor:hypervoice",
    "tutor:icepunch",
    "tutor:icywind",
    "tutor:lastresort",
    "tutor:metronome",
    "tutor:mudslap",
    "tutor:odorsleuth",
    "tutor:recycle",
    "tutor:rollout",
    "tutor:seedbomb",
    "tutor:selfdestruct",
    "tutor:shockwave",
    "tutor:sleeptalk",
    "tutor:snatch",
    "tutor:snore",
    "tutor:stompingtantrum",
    "tutor:superpower",
    "tutor:tackle",
    "tutor:thunderpunch",
    "tutor:uproar",
    "tutor:waterpulse",
    "tutor:zenheadbutt"
  ],
  "labels": [
    "gen4",
    "baby"
  ],
  "pokedex": [
    "cobblemon.species.munchlax.desc"
  ],
  "evolutions": [
    {
      "id": "munchlax_snorlax",
      "variant": "level_up",
      "result": "snorlax",
      "consumeHeldItem": false,
      "learnableMoves": [],
      "requirements": [
        {
          "variant": "friendship",
          "amount": 160
        }
      ]
    }
  ],
  "baseScale": 0.8,
  "hitbox": {
    "width": 0.7,
    "height": 1,
    "fixed": false
  },
  "baseFriendship": 50,
  "evYield": {
    "hp": 1,
    "attack": 0,
    "defence": 0,
    "special_attack": 0,
    "special_defence": 0,
    "speed": 0
  },
  "height": 6,
  "weight": 1050,
  "aspects": [],
  "cannotDynamax": false
}